<svg viewBox="0 0 100 100" xmlns="http://www.w3.org/2000/svg" stroke="black" stroke-width="3" stroke-linecap="round" stroke-linejoin="round" fill-opacity="0">
    <path d="M2,50 98,50 M98,50 91,44 M98,50 91,56" />
    <circle r="30" cx="50" cy="50"/>
    <line x1="40" x2="60" y1="36" y2="36" stroke-width="0.5" stroke="darkgrey" />
    <path d="M40,27 C45,27 45,45 50,45 C55,45 55,27  60,27" stroke-width="2" />
</svg>