<svg viewBox="0 0 100 100" xmlns="http://www.w3.org/2000/svg" stroke="black" stroke-width="3" stroke-linecap="round" stroke-linejoin="round" fill-opacity="0">
    <line x1="50" x2="50" y1="2" y2="50" />
    <line x1="15" x2="85" y1="50" y2="50" />
    <line x1="25" x2="75" y1="60" y2="60" />
    <line x1="35" x2="65" y1="70" y2="70" />
    <line x1="45" x2="55" y1="80" y2="80" />
</svg>