<svg viewBox="0 0 100 100" xmlns="http://www.w3.org/2000/svg" stroke="black" stroke-width="3" stroke-linecap="round" stroke-linejoin="round" fill-opacity="0">
    <path d="M2,50 98,50 M98,50 91,44 M98,50 91,56" />
    <circle r="30" cx="50" cy="50" fill="white" fill-opacity="1"/>
    <line x1="50" x2="50" y1="20" y2="80" />
    <line x1="55" x2="75" y1="50" y2="50" stroke-width="0.5" stroke="darkgrey" />
    <path d="M55,50 59,50 59,41 62,41 62,50 67,50 67,41 70,41 70,50 74,50" stroke-width="2"/>
</svg>