<svg viewBox="0 0 100 100" xmlns="http://www.w3.org/2000/svg" stroke="black" stroke-width="3" stroke-linecap="round" stroke-linejoin="round" fill-opacity="0">
    <path d="M2,50 98,50 M98,50 91,44 M98,50 91,56" />
    <circle r="30" cx="50" cy="50"/>
    <path d="M40,45 50,45 50,27 60,27" stroke-width="2"/>
</svg>