<svg viewBox="0 0 100 100" xmlns="http://www.w3.org/2000/svg" stroke="black" stroke-width="12" stroke-linecap="round">
  
  
  <line x1="6" y1="94" x2="30" y2="6"/>
  <line x1="30" y1="6" x2="70" y2="6"/>
  <line x1="70" y1="6" x2="94" y2="94"/>
</svg>